Cluster Time Series by Directional Dynamics — cluster_bouquet • bouquets
…
# Path-coordinate clustering -- most visually intuitive
# \donttest{
cluster_bouquet(gw_long,
  time_col = week, series_col = station, value_col = level_m,
  method = "coords_hclust")
#> # A tibble: 312 × 4
#>    week       station level_m cluster
#>    <date>     <chr>     <dbl> <fct>  
#>  1 2023-01-01 S1         8.77 C1     
#>  2 2023-01-08 S1         8.76 C1     
#>  3 2023-01-15 S1         8.93 C1     
#>  4 2023-01-22 S1         9.15 C1     
#>  5 2023-01-29 S1         9.32 C1     
#>  6 2023-02-05 S1         9.38 C1     
#>  7 2023-02-12 S1         9.76 C1     
#>  8 2023-02-19 S1         9.81 C1     
#>  9 2023-02-26 S1        10.3  C1     
#> 10 2023-03-05 S1        10.3  C1     
#> # ℹ 302 more rows

# Area-based clustering
cluster_bouquet(gw_long,
  time_col = week, series_col = station, value_col = level_m,
  method = "area_hclust")
#> # A tibble: 312 × 4
#>    week       station level_m cluster
#>    <date>     <chr>     <dbl> <fct>  
#>  1 2023-01-01 S1         8.77 C1     
#>  2 2023-01-08 S1         8.76 C1     
#>  3 2023-01-15 S1         8.93 C1     
#>  4 2023-01-22 S1         9.15 C1     
#>  5 2023-01-29 S1         9.32 C1     
#>  6 2023-02-05 S1         9.38 C1     
#>  7 2023-02-12 S1         9.76 C1     
#>  8 2023-02-19 S1         9.81 C1     
#>  9 2023-02-26 S1        10.3  C1     
#> 10 2023-03-05 S1        10.3  C1     
#> # ℹ 302 more rows
…
